%YAML 1.1
%TAG !u! tag:unity3d.com,2011:
--- !u!78 &1
TagManager:
  serializedVersion: 2
  tags:
  - Enemy
  - PlayerHealthSlider
  - PlayerCoinsText
  - FuckMeUp
  - HealthText
  - GameOverScreen
  - music
  layers:
  - Default
  - TransparentFX
  - Ignore Raycast
  - 
  - Water
  - UI
  - 
  - 
  - 
  - 
  - 
  - 
  - 
  - 
  - 
  - 
  - 
  - 
  - 
  - 
  - 
  - 
  - 
  - 
  - 
  - 
  - 
  - 
  - 
  - 
  - 
  - 
  m_SortingLayers:
  - name: Default
    uniqueID: 0
    locked: 0
  - name: EnemyLayer1
    uniqueID: 3525563105
    locked: 0
  - name: EnemyLayer2
    uniqueID: 61825883
    locked: 0
  - name: EnemyLayer3
    uniqueID: 1678361545
    locked: 0
  - name: EnemyLayer4
    uniqueID: 1811295581
    locked: 0
  - name: EnemyLayer5
    uniqueID: 2402409893
    locked: 0
  - name: hud
    uniqueID: 1112503233
    locked: 0
  - name: Pausemenu
    uniqueID: 2507258839
    locked: 0
